<?xml version="1.0" encoding="UTF-8" standalone="no"?>
<!-- Created with Inkscape (http://www.inkscape.org/) -->
<svg
   xmlns:dc="http://purl.org/dc/elements/1.1/"
   xmlns:cc="http://web.resource.org/cc/"
   xmlns:rdf="http://www.w3.org/1999/02/22-rdf-syntax-ns#"
   xmlns:svg="http://www.w3.org/2000/svg"
   xmlns="http://www.w3.org/2000/svg"
   xmlns:xlink="http://www.w3.org/1999/xlink"
   xmlns:sodipodi="http://sodipodi.sourceforge.net/DTD/sodipodi-0.dtd"
   xmlns:inkscape="http://www.inkscape.org/namespaces/inkscape"
   width="40"
   height="40"
   id="svg2"
   sodipodi:version="0.32"
   inkscape:version="0.44"
   sodipodi:docbase="/home/johann/Developpement/kdeedu-kalzium/kalzium/files"
   sodipodi:docname="13_2.svg"
   version="1.0">
  <defs
     id="defs4">
    <linearGradient
       id="linearGradient9141">
      <stop
         style="stop-color:white;stop-opacity:1;"
         offset="0"
         id="stop9143" />
      <stop
         style="stop-color:#6e3b00;stop-opacity:1;"
         offset="1"
         id="stop9145" />
    </linearGradient>
    <linearGradient
       id="linearGradient7345">
      <stop
         style="stop-color:#00920d;stop-opacity:1;"
         offset="0"
         id="stop7347" />
      <stop
         style="stop-color:#4640ff;stop-opacity:1;"
         offset="1"
         id="stop7349" />
    </linearGradient>
    <linearGradient
       id="linearGradient2762">
      <stop
         style="stop-color:#aaa;stop-opacity:1;"
         offset="0"
         id="stop2764" />
      <stop
         style="stop-color:white;stop-opacity:1;"
         offset="1"
         id="stop2766" />
    </linearGradient>
    <linearGradient
       inkscape:collect="always"
       xlink:href="#linearGradient2762"
       id="linearGradient2768"
       x1="272.74118"
       y1="275.55487"
       x2="391.72903"
       y2="634.15906"
       gradientUnits="userSpaceOnUse"
       gradientTransform="matrix(8.866245e-2,1.129097e-8,0,8.799968e-2,-13.49295,-15.37916)" />
    <radialGradient
       inkscape:collect="always"
       xlink:href="#linearGradient9141"
       id="radialGradient9147"
       cx="273.90863"
       cy="300.83936"
       fx="273.90863"
       fy="300.83936"
       r="200"
       gradientTransform="matrix(0.189448,-9.229446e-8,8.934643e-8,0.183396,-31.86537,-40.13593)"
       gradientUnits="userSpaceOnUse" />
  </defs>
  <sodipodi:namedview
     id="base"
     pagecolor="#ffffff"
     bordercolor="#666666"
     borderopacity="1.0"
     gridtolerance="10000"
     guidetolerance="10"
     objecttolerance="10"
     inkscape:pageopacity="0.0"
     inkscape:pageshadow="2"
     inkscape:zoom="17.729095"
     inkscape:cx="50.986843"
     inkscape:cy="22.732376"
     inkscape:document-units="px"
     inkscape:current-layer="layer1"
     inkscape:window-width="1908"
     inkscape:window-height="1116"
     inkscape:window-x="6"
     inkscape:window-y="31"
     width="40px"
     height="40px" />
  <metadata
     id="metadata7">
    <rdf:RDF>
      <cc:Work
         rdf:about="">
        <dc:format>image/svg+xml</dc:format>
        <dc:type
           rdf:resource="http://purl.org/dc/dcmitype/StillImage" />
      </cc:Work>
    </rdf:RDF>
  </metadata>
  <g
     inkscape:label="Layer 1"
     inkscape:groupmode="layer"
     id="layer1">
    <rect
       style="opacity:1;fill:url(#radialGradient9147);fill-opacity:1;fill-rule:nonzero;stroke:none;stroke-width:13.2159996;stroke-linecap:round;stroke-linejoin:miter;stroke-miterlimit:4;stroke-dasharray:none;stroke-dashoffset:0;stroke-opacity:0.90797544"
       id="rect5573"
       width="40.021736"
       height="30.016304"
       x="0.015112041"
       y="0.028686343"
       ry="0" />
    <rect
       style="opacity:1;fill:url(#linearGradient2768);fill-opacity:1;fill-rule:nonzero;stroke:#96562d;stroke-width:0.9747653;stroke-linecap:round;stroke-linejoin:miter;stroke-miterlimit:4;stroke-dasharray:none;stroke-dashoffset:0;stroke-opacity:0.90797544"
       id="rect1872"
       width="17.822945"
       height="23.023226"
       x="3.3448102"
       y="7.5360556"
       ry="59.525799"
       transform="matrix(0.94814,-0.317853,0,1,0,0)"
       rx="59.525799" />
    <g
       id="g9173"
       transform="matrix(0.100055,0,0,0.100055,-5.432932,-14.3384)">
      <path
         transform="matrix(0.541037,0,0,0.611706,116.8738,28.19644)"
         sodipodi:open="true"
         sodipodi:end="12.422656"
         sodipodi:start="6.1458138"
         d="M 497.67689,349.04837 A 34.850262,31.31473 0 1 1 497.64592,348.8517"
         sodipodi:ry="31.31473"
         sodipodi:rx="34.850262"
         sodipodi:cy="353.33661"
         sodipodi:cx="463.15494"
         id="path2770"
         style="fill:black;fill-opacity:1;fill-rule:nonzero;stroke:none;stroke-width:1.60000002;stroke-linecap:round;stroke-linejoin:miter;stroke-miterlimit:4;stroke-dasharray:none;stroke-dashoffset:0;stroke-opacity:0.90797544"
         sodipodi:type="arc" />
      <path
         transform="matrix(0.582649,0,0,0.147322,98.50337,216.5632)"
         sodipodi:open="true"
         sodipodi:end="12.422656"
         sodipodi:start="6.1458138"
         d="M 497.67689,349.04837 A 34.850262,31.31473 0 1 1 497.64592,348.8517"
         sodipodi:ry="31.31473"
         sodipodi:rx="34.850262"
         sodipodi:cy="353.33661"
         sodipodi:cx="463.15494"
         id="path3657"
         style="fill:black;fill-opacity:1;fill-rule:nonzero;stroke:none;stroke-width:1.60000002;stroke-linecap:round;stroke-linejoin:miter;stroke-miterlimit:4;stroke-dasharray:none;stroke-dashoffset:0;stroke-opacity:0.90797544"
         sodipodi:type="arc" />
      <path
         transform="matrix(0.44741,0,0,0.996805,161.1404,-52.37409)"
         sodipodi:open="true"
         sodipodi:end="12.422656"
         sodipodi:start="6.1458138"
         d="M 497.67689,349.04837 A 34.850262,31.31473 0 1 1 497.64592,348.8517"
         sodipodi:ry="31.31473"
         sodipodi:rx="34.850262"
         sodipodi:cy="353.33661"
         sodipodi:cx="463.15494"
         id="path3659"
         style="fill:black;fill-opacity:1;fill-rule:nonzero;stroke:none;stroke-width:1.60000002;stroke-linecap:round;stroke-linejoin:miter;stroke-miterlimit:4;stroke-dasharray:none;stroke-dashoffset:0;stroke-opacity:0.90797544"
         sodipodi:type="arc" />
      <path
         transform="matrix(0.195505,0,0,0.203955,300.5766,198.6814)"
         sodipodi:open="true"
         sodipodi:end="12.422656"
         sodipodi:start="6.1458138"
         d="M 497.67689,349.04837 A 34.850262,31.31473 0 1 1 497.64592,348.8517"
         sodipodi:ry="31.31473"
         sodipodi:rx="34.850262"
         sodipodi:cy="353.33661"
         sodipodi:cx="463.15494"
         id="path3661"
         style="fill:black;fill-opacity:1;fill-rule:nonzero;stroke:none;stroke-width:1.60000002;stroke-linecap:round;stroke-linejoin:miter;stroke-miterlimit:4;stroke-dasharray:none;stroke-dashoffset:0;stroke-opacity:0.90797544"
         sodipodi:type="arc" />
      <path
         inkscape:transform-center-x="-6.7200618"
         inkscape:transform-center-y="-8.8304927"
         transform="matrix(0.244773,0.297205,-7.767472e-2,6.256191e-2,315.1718,121.3861)"
         sodipodi:open="true"
         sodipodi:end="12.422656"
         sodipodi:start="6.1458138"
         d="M 497.67689,349.04837 A 34.850262,31.31473 0 1 1 497.64592,348.8517"
         sodipodi:ry="31.31473"
         sodipodi:rx="34.850262"
         sodipodi:cy="353.33661"
         sodipodi:cx="463.15494"
         id="path3663"
         style="fill:black;fill-opacity:1;fill-rule:nonzero;stroke:none;stroke-width:1.60000002;stroke-linecap:round;stroke-linejoin:miter;stroke-miterlimit:4;stroke-dasharray:none;stroke-dashoffset:0;stroke-opacity:0.90797544"
         sodipodi:type="arc" />
      <path
         transform="matrix(0.138462,0,0,0.13715,346.613,243.1786)"
         sodipodi:open="true"
         sodipodi:end="12.422656"
         sodipodi:start="6.1458138"
         d="M 497.67689,349.04837 A 34.850262,31.31473 0 1 1 497.64592,348.8517"
         sodipodi:ry="31.31473"
         sodipodi:rx="34.850262"
         sodipodi:cy="353.33661"
         sodipodi:cx="463.15494"
         id="path3665"
         style="fill:black;fill-opacity:1;fill-rule:nonzero;stroke:none;stroke-width:1.60000002;stroke-linecap:round;stroke-linejoin:miter;stroke-miterlimit:4;stroke-dasharray:none;stroke-dashoffset:0;stroke-opacity:0.90797544"
         sodipodi:type="arc" />
      <path
         transform="matrix(0.314393,-0.224186,5.859181e-2,8.035571e-2,255.4893,358.2876)"
         sodipodi:open="true"
         sodipodi:end="12.422656"
         sodipodi:start="6.1458138"
         d="M 497.67689,349.04837 A 34.850262,31.31473 0 1 1 497.64592,348.8517"
         sodipodi:ry="31.31473"
         sodipodi:rx="34.850262"
         sodipodi:cy="353.33661"
         sodipodi:cx="463.15494"
         id="path3667"
         style="fill:black;fill-opacity:1;fill-rule:nonzero;stroke:none;stroke-width:1.60000002;stroke-linecap:round;stroke-linejoin:miter;stroke-miterlimit:4;stroke-dasharray:none;stroke-dashoffset:0;stroke-opacity:0.90797544"
         sodipodi:type="arc" />
      <path
         transform="matrix(0.138462,0,0,0.13715,371.2162,224.0958)"
         sodipodi:open="true"
         sodipodi:end="12.422656"
         sodipodi:start="6.1458138"
         d="M 497.67689,349.04837 A 34.850262,31.31473 0 1 1 497.64592,348.8517"
         sodipodi:ry="31.31473"
         sodipodi:rx="34.850262"
         sodipodi:cy="353.33661"
         sodipodi:cx="463.15494"
         id="path3669"
         style="fill:black;fill-opacity:1;fill-rule:nonzero;stroke:none;stroke-width:1.60000002;stroke-linecap:round;stroke-linejoin:miter;stroke-miterlimit:4;stroke-dasharray:none;stroke-dashoffset:0;stroke-opacity:0.90797544"
         sodipodi:type="arc" />
      <path
         transform="matrix(-0.187835,0,0,0.208537,435.0344,195.9642)"
         sodipodi:open="true"
         sodipodi:end="12.422656"
         sodipodi:start="6.1458138"
         d="M 497.67689,349.04837 A 34.850262,31.31473 0 1 1 497.64592,348.8517"
         sodipodi:ry="31.31473"
         sodipodi:rx="34.850262"
         sodipodi:cy="353.33661"
         sodipodi:cx="463.15494"
         id="path3671"
         style="fill:black;fill-opacity:1;fill-rule:nonzero;stroke:none;stroke-width:1.60000002;stroke-linecap:round;stroke-linejoin:miter;stroke-miterlimit:4;stroke-dasharray:none;stroke-dashoffset:0;stroke-opacity:0.90797544"
         sodipodi:type="arc" />
      <path
         inkscape:transform-center-x="-7.9690796"
         inkscape:transform-center-y="-7.3150071"
         transform="matrix(-0.23517,0.303882,7.462743e-2,6.396757e-2,421.0117,116.9322)"
         sodipodi:open="true"
         sodipodi:end="12.422656"
         sodipodi:start="6.1458138"
         d="M 497.67689,349.04837 A 34.850262,31.31473 0 1 1 497.64592,348.8517"
         sodipodi:ry="31.31473"
         sodipodi:rx="34.850262"
         sodipodi:cy="353.33661"
         sodipodi:cx="463.15494"
         id="path3673"
         style="fill:black;fill-opacity:1;fill-rule:nonzero;stroke:none;stroke-width:1.60000002;stroke-linecap:round;stroke-linejoin:miter;stroke-miterlimit:4;stroke-dasharray:none;stroke-dashoffset:0;stroke-opacity:0.90797544"
         sodipodi:type="arc" />
      <path
         transform="matrix(-0.13303,0,0,0.140232,390.8041,241.4612)"
         sodipodi:open="true"
         sodipodi:end="12.422656"
         sodipodi:start="6.1458138"
         d="M 497.67689,349.04837 A 34.850262,31.31473 0 1 1 497.64592,348.8517"
         sodipodi:ry="31.31473"
         sodipodi:rx="34.850262"
         sodipodi:cy="353.33661"
         sodipodi:cx="463.15494"
         id="path3675"
         style="fill:black;fill-opacity:1;fill-rule:nonzero;stroke:none;stroke-width:1.60000002;stroke-linecap:round;stroke-linejoin:miter;stroke-miterlimit:4;stroke-dasharray:none;stroke-dashoffset:0;stroke-opacity:0.90797544"
         sodipodi:type="arc" />
      <path
         transform="matrix(-0.302058,0.229223,-5.62931e-2,-8.216137e-2,479.8031,221.0677)"
         sodipodi:open="true"
         sodipodi:end="12.422656"
         sodipodi:start="6.1458138"
         d="M 497.67689,349.04837 A 34.850262,31.31473 0 1 1 497.64592,348.8517"
         sodipodi:ry="31.31473"
         sodipodi:rx="34.850262"
         sodipodi:cy="353.33661"
         sodipodi:cx="463.15494"
         id="path3677"
         style="fill:black;fill-opacity:1;fill-rule:nonzero;stroke:none;stroke-width:1.60000002;stroke-linecap:round;stroke-linejoin:miter;stroke-miterlimit:4;stroke-dasharray:none;stroke-dashoffset:0;stroke-opacity:0.90797544"
         sodipodi:type="arc" />
      <path
         transform="matrix(-0.13303,0,0,-0.140232,368.6164,358.2746)"
         sodipodi:open="true"
         sodipodi:end="12.422656"
         sodipodi:start="6.1458138"
         d="M 497.67689,349.04837 A 34.850262,31.31473 0 1 1 497.64592,348.8517"
         sodipodi:ry="31.31473"
         sodipodi:rx="34.850262"
         sodipodi:cy="353.33661"
         sodipodi:cx="463.15494"
         id="path3679"
         style="fill:black;fill-opacity:1;fill-rule:nonzero;stroke:none;stroke-width:1.60000002;stroke-linecap:round;stroke-linejoin:miter;stroke-miterlimit:4;stroke-dasharray:none;stroke-dashoffset:0;stroke-opacity:0.90797544"
         sodipodi:type="arc" />
      <path
         transform="matrix(-0.205718,0,0,0.189803,479.1268,263.6406)"
         sodipodi:open="true"
         sodipodi:end="12.422656"
         sodipodi:start="6.1458138"
         d="M 497.67689,349.04837 A 34.850262,31.31473 0 1 1 497.64592,348.8517"
         sodipodi:ry="31.31473"
         sodipodi:rx="34.850262"
         sodipodi:cy="353.33661"
         sodipodi:cx="463.15494"
         id="path3681"
         style="fill:black;fill-opacity:1;fill-rule:nonzero;stroke:none;stroke-width:1.60000002;stroke-linecap:round;stroke-linejoin:miter;stroke-miterlimit:4;stroke-dasharray:none;stroke-dashoffset:0;stroke-opacity:0.90797544"
         sodipodi:type="arc" />
      <path
         transform="matrix(0.530634,0,0,0.24926,121.5067,240.1386)"
         sodipodi:open="true"
         sodipodi:end="12.422656"
         sodipodi:start="6.1458138"
         d="M 497.67689,349.04837 A 34.850262,31.31473 0 1 1 497.64592,348.8517"
         sodipodi:ry="31.31473"
         sodipodi:rx="34.850262"
         sodipodi:cy="353.33661"
         sodipodi:cx="463.15494"
         id="path3683"
         style="fill:black;fill-opacity:1;fill-rule:nonzero;stroke:none;stroke-width:1.60000002;stroke-linecap:round;stroke-linejoin:miter;stroke-miterlimit:4;stroke-dasharray:none;stroke-dashoffset:0;stroke-opacity:0.90797544"
         sodipodi:type="arc" />
      <path
         transform="matrix(-0.195437,0,-0.111282,0.695751,510.801,105.5471)"
         sodipodi:open="true"
         sodipodi:end="12.422656"
         sodipodi:start="6.1458138"
         d="M 497.67689,349.04837 A 34.850262,31.31473 0 1 1 497.64592,348.8517"
         sodipodi:ry="31.31473"
         sodipodi:rx="34.850262"
         sodipodi:cy="353.33661"
         sodipodi:cx="463.15494"
         id="path3685"
         style="fill:black;fill-opacity:1;fill-rule:nonzero;stroke:none;stroke-width:1.60000002;stroke-linecap:round;stroke-linejoin:miter;stroke-miterlimit:4;stroke-dasharray:none;stroke-dashoffset:0;stroke-opacity:0.90797544"
         sodipodi:type="arc" />
      <path
         transform="matrix(-0.205718,0,0,0.189803,472.5634,304.1)"
         sodipodi:open="true"
         sodipodi:end="12.422656"
         sodipodi:start="6.1458138"
         d="M 497.67689,349.04837 A 34.850262,31.31473 0 1 1 497.64592,348.8517"
         sodipodi:ry="31.31473"
         sodipodi:rx="34.850262"
         sodipodi:cy="353.33661"
         sodipodi:cx="463.15494"
         id="path3687"
         style="fill:black;fill-opacity:1;fill-rule:nonzero;stroke:none;stroke-width:1.60000002;stroke-linecap:round;stroke-linejoin:miter;stroke-miterlimit:4;stroke-dasharray:none;stroke-dashoffset:0;stroke-opacity:0.90797544"
         sodipodi:type="arc" />
      <path
         transform="matrix(-0.284035,0.227768,0.126934,0.145614,463.1382,260.2502)"
         sodipodi:open="true"
         sodipodi:end="12.422656"
         sodipodi:start="6.1458138"
         d="M 497.67689,349.04837 A 34.850262,31.31473 0 1 1 497.64592,348.8517"
         sodipodi:ry="31.31473"
         sodipodi:rx="34.850262"
         sodipodi:cy="353.33661"
         sodipodi:cx="463.15494"
         id="path3689"
         style="fill:black;fill-opacity:1;fill-rule:nonzero;stroke:none;stroke-width:1.60000002;stroke-linecap:round;stroke-linejoin:miter;stroke-miterlimit:4;stroke-dasharray:none;stroke-dashoffset:0;stroke-opacity:0.90797544"
         sodipodi:type="arc" />
      <path
         transform="matrix(-0.195437,0,3.104195e-2,0.695751,458.6061,148.3837)"
         sodipodi:open="true"
         sodipodi:end="12.422656"
         sodipodi:start="6.1458138"
         d="M 497.67689,349.04837 A 34.850262,31.31473 0 1 1 497.64592,348.8517"
         sodipodi:ry="31.31473"
         sodipodi:rx="34.850262"
         sodipodi:cy="353.33661"
         sodipodi:cx="463.15494"
         id="path3691"
         style="fill:black;fill-opacity:1;fill-rule:nonzero;stroke:none;stroke-width:1.60000002;stroke-linecap:round;stroke-linejoin:miter;stroke-miterlimit:4;stroke-dasharray:none;stroke-dashoffset:0;stroke-opacity:0.90797544"
         sodipodi:type="arc" />
      <path
         transform="matrix(-0.199221,0,0,0.16451,444.0432,275.2966)"
         sodipodi:open="true"
         sodipodi:end="12.422656"
         sodipodi:start="6.1458138"
         d="M 497.67689,349.04837 A 34.850262,31.31473 0 1 1 497.64592,348.8517"
         sodipodi:ry="31.31473"
         sodipodi:rx="34.850262"
         sodipodi:cy="353.33661"
         sodipodi:cx="463.15494"
         id="path3693"
         style="fill:black;fill-opacity:1;fill-rule:nonzero;stroke:none;stroke-width:1.60000002;stroke-linecap:round;stroke-linejoin:miter;stroke-miterlimit:4;stroke-dasharray:none;stroke-dashoffset:0;stroke-opacity:0.90797544"
         sodipodi:type="arc" />
      <path
         transform="matrix(-0.189264,0,-0.191485,0.603037,500.8018,138.6612)"
         sodipodi:open="true"
         sodipodi:end="12.422656"
         sodipodi:start="6.1458138"
         d="M 497.67689,349.04837 A 34.850262,31.31473 0 1 1 497.64592,348.8517"
         sodipodi:ry="31.31473"
         sodipodi:rx="34.850262"
         sodipodi:cy="353.33661"
         sodipodi:cx="463.15494"
         id="path3695"
         style="fill:black;fill-opacity:1;fill-rule:nonzero;stroke:none;stroke-width:1.60000002;stroke-linecap:round;stroke-linejoin:miter;stroke-miterlimit:4;stroke-dasharray:none;stroke-dashoffset:0;stroke-opacity:0.90797544"
         sodipodi:type="arc" />
      <path
         transform="matrix(-0.199221,0,0,0.16451,430.2584,313.4933)"
         sodipodi:open="true"
         sodipodi:end="12.422656"
         sodipodi:start="6.1458138"
         d="M 497.67689,349.04837 A 34.850262,31.31473 0 1 1 497.64592,348.8517"
         sodipodi:ry="31.31473"
         sodipodi:rx="34.850262"
         sodipodi:cy="353.33661"
         sodipodi:cx="463.15494"
         id="path3697"
         style="fill:black;fill-opacity:1;fill-rule:nonzero;stroke:none;stroke-width:1.60000002;stroke-linecap:round;stroke-linejoin:miter;stroke-miterlimit:4;stroke-dasharray:none;stroke-dashoffset:0;stroke-opacity:0.90797544"
         sodipodi:type="arc" />
      <path
         transform="matrix(-0.275065,0.197416,0.122925,0.12621,428.5596,272.3579)"
         sodipodi:open="true"
         sodipodi:end="12.422656"
         sodipodi:start="6.1458138"
         d="M 497.67689,349.04837 A 34.850262,31.31473 0 1 1 497.64592,348.8517"
         sodipodi:ry="31.31473"
         sodipodi:rx="34.850262"
         sodipodi:cy="353.33661"
         sodipodi:cx="463.15494"
         id="path3699"
         style="fill:black;fill-opacity:1;fill-rule:nonzero;stroke:none;stroke-width:1.60000002;stroke-linecap:round;stroke-linejoin:miter;stroke-miterlimit:4;stroke-dasharray:none;stroke-dashoffset:0;stroke-opacity:0.90797544"
         sodipodi:type="arc" />
      <path
         transform="matrix(-0.189264,0,0.239357,0.603037,346.7232,176.5718)"
         sodipodi:open="true"
         sodipodi:end="12.422656"
         sodipodi:start="6.1458138"
         d="M 497.67689,349.04837 A 34.850262,31.31473 0 1 1 497.64592,348.8517"
         sodipodi:ry="31.31473"
         sodipodi:rx="34.850262"
         sodipodi:cy="353.33661"
         sodipodi:cx="463.15494"
         id="path3701"
         style="fill:black;fill-opacity:1;fill-rule:nonzero;stroke:none;stroke-width:1.60000002;stroke-linecap:round;stroke-linejoin:miter;stroke-miterlimit:4;stroke-dasharray:none;stroke-dashoffset:0;stroke-opacity:0.90797544"
         sodipodi:type="arc" />
    </g>
    <g
       id="g9199"
       transform="matrix(-0.100055,0,0,0.100055,48.95339,-17.74692)"
       style="opacity:0.48991358">
      <path
         transform="matrix(0.541037,0,0,0.611706,116.8738,28.19644)"
         sodipodi:open="true"
         sodipodi:end="12.422656"
         sodipodi:start="6.1458138"
         d="M 497.67689,349.04837 A 34.850262,31.31473 0 1 1 497.64592,348.8517"
         sodipodi:ry="31.31473"
         sodipodi:rx="34.850262"
         sodipodi:cy="353.33661"
         sodipodi:cx="463.15494"
         id="path9201"
         style="fill:black;fill-opacity:1;fill-rule:nonzero;stroke:none;stroke-width:1.60000002;stroke-linecap:round;stroke-linejoin:miter;stroke-miterlimit:4;stroke-dasharray:none;stroke-dashoffset:0;stroke-opacity:0.90797544"
         sodipodi:type="arc" />
      <path
         transform="matrix(0.582649,0,0,0.147322,98.50337,216.5632)"
         sodipodi:open="true"
         sodipodi:end="12.422656"
         sodipodi:start="6.1458138"
         d="M 497.67689,349.04837 A 34.850262,31.31473 0 1 1 497.64592,348.8517"
         sodipodi:ry="31.31473"
         sodipodi:rx="34.850262"
         sodipodi:cy="353.33661"
         sodipodi:cx="463.15494"
         id="path9203"
         style="fill:black;fill-opacity:1;fill-rule:nonzero;stroke:none;stroke-width:1.60000002;stroke-linecap:round;stroke-linejoin:miter;stroke-miterlimit:4;stroke-dasharray:none;stroke-dashoffset:0;stroke-opacity:0.90797544"
         sodipodi:type="arc" />
      <path
         transform="matrix(0.44741,0,0,0.996805,161.1404,-52.37409)"
         sodipodi:open="true"
         sodipodi:end="12.422656"
         sodipodi:start="6.1458138"
         d="M 497.67689,349.04837 A 34.850262,31.31473 0 1 1 497.64592,348.8517"
         sodipodi:ry="31.31473"
         sodipodi:rx="34.850262"
         sodipodi:cy="353.33661"
         sodipodi:cx="463.15494"
         id="path9205"
         style="fill:black;fill-opacity:1;fill-rule:nonzero;stroke:none;stroke-width:1.60000002;stroke-linecap:round;stroke-linejoin:miter;stroke-miterlimit:4;stroke-dasharray:none;stroke-dashoffset:0;stroke-opacity:0.90797544"
         sodipodi:type="arc" />
      <path
         transform="matrix(0.195505,0,0,0.203955,300.5766,198.6814)"
         sodipodi:open="true"
         sodipodi:end="12.422656"
         sodipodi:start="6.1458138"
         d="M 497.67689,349.04837 A 34.850262,31.31473 0 1 1 497.64592,348.8517"
         sodipodi:ry="31.31473"
         sodipodi:rx="34.850262"
         sodipodi:cy="353.33661"
         sodipodi:cx="463.15494"
         id="path9207"
         style="fill:black;fill-opacity:1;fill-rule:nonzero;stroke:none;stroke-width:1.60000002;stroke-linecap:round;stroke-linejoin:miter;stroke-miterlimit:4;stroke-dasharray:none;stroke-dashoffset:0;stroke-opacity:0.90797544"
         sodipodi:type="arc" />
      <path
         inkscape:transform-center-x="-6.7200618"
         inkscape:transform-center-y="-8.8304927"
         transform="matrix(0.244773,0.297205,-7.767472e-2,6.256191e-2,315.1718,121.3861)"
         sodipodi:open="true"
         sodipodi:end="12.422656"
         sodipodi:start="6.1458138"
         d="M 497.67689,349.04837 A 34.850262,31.31473 0 1 1 497.64592,348.8517"
         sodipodi:ry="31.31473"
         sodipodi:rx="34.850262"
         sodipodi:cy="353.33661"
         sodipodi:cx="463.15494"
         id="path9209"
         style="fill:black;fill-opacity:1;fill-rule:nonzero;stroke:none;stroke-width:1.60000002;stroke-linecap:round;stroke-linejoin:miter;stroke-miterlimit:4;stroke-dasharray:none;stroke-dashoffset:0;stroke-opacity:0.90797544"
         sodipodi:type="arc" />
      <path
         transform="matrix(0.138462,0,0,0.13715,346.613,243.1786)"
         sodipodi:open="true"
         sodipodi:end="12.422656"
         sodipodi:start="6.1458138"
         d="M 497.67689,349.04837 A 34.850262,31.31473 0 1 1 497.64592,348.8517"
         sodipodi:ry="31.31473"
         sodipodi:rx="34.850262"
         sodipodi:cy="353.33661"
         sodipodi:cx="463.15494"
         id="path9211"
         style="fill:black;fill-opacity:1;fill-rule:nonzero;stroke:none;stroke-width:1.60000002;stroke-linecap:round;stroke-linejoin:miter;stroke-miterlimit:4;stroke-dasharray:none;stroke-dashoffset:0;stroke-opacity:0.90797544"
         sodipodi:type="arc" />
      <path
         transform="matrix(0.314393,-0.224186,5.859181e-2,8.035571e-2,255.4893,358.2876)"
         sodipodi:open="true"
         sodipodi:end="12.422656"
         sodipodi:start="6.1458138"
         d="M 497.67689,349.04837 A 34.850262,31.31473 0 1 1 497.64592,348.8517"
         sodipodi:ry="31.31473"
         sodipodi:rx="34.850262"
         sodipodi:cy="353.33661"
         sodipodi:cx="463.15494"
         id="path9213"
         style="fill:black;fill-opacity:1;fill-rule:nonzero;stroke:none;stroke-width:1.60000002;stroke-linecap:round;stroke-linejoin:miter;stroke-miterlimit:4;stroke-dasharray:none;stroke-dashoffset:0;stroke-opacity:0.90797544"
         sodipodi:type="arc" />
      <path
         transform="matrix(0.138462,0,0,0.13715,371.2162,224.0958)"
         sodipodi:open="true"
         sodipodi:end="12.422656"
         sodipodi:start="6.1458138"
         d="M 497.67689,349.04837 A 34.850262,31.31473 0 1 1 497.64592,348.8517"
         sodipodi:ry="31.31473"
         sodipodi:rx="34.850262"
         sodipodi:cy="353.33661"
         sodipodi:cx="463.15494"
         id="path9215"
         style="fill:black;fill-opacity:1;fill-rule:nonzero;stroke:none;stroke-width:1.60000002;stroke-linecap:round;stroke-linejoin:miter;stroke-miterlimit:4;stroke-dasharray:none;stroke-dashoffset:0;stroke-opacity:0.90797544"
         sodipodi:type="arc" />
      <path
         transform="matrix(-0.187835,0,0,0.208537,435.0344,195.9642)"
         sodipodi:open="true"
         sodipodi:end="12.422656"
         sodipodi:start="6.1458138"
         d="M 497.67689,349.04837 A 34.850262,31.31473 0 1 1 497.64592,348.8517"
         sodipodi:ry="31.31473"
         sodipodi:rx="34.850262"
         sodipodi:cy="353.33661"
         sodipodi:cx="463.15494"
         id="path9217"
         style="fill:black;fill-opacity:1;fill-rule:nonzero;stroke:none;stroke-width:1.60000002;stroke-linecap:round;stroke-linejoin:miter;stroke-miterlimit:4;stroke-dasharray:none;stroke-dashoffset:0;stroke-opacity:0.90797544"
         sodipodi:type="arc" />
      <path
         inkscape:transform-center-x="-7.9690796"
         inkscape:transform-center-y="-7.3150071"
         transform="matrix(-0.23517,0.303882,7.462743e-2,6.396757e-2,421.0117,116.9322)"
         sodipodi:open="true"
         sodipodi:end="12.422656"
         sodipodi:start="6.1458138"
         d="M 497.67689,349.04837 A 34.850262,31.31473 0 1 1 497.64592,348.8517"
         sodipodi:ry="31.31473"
         sodipodi:rx="34.850262"
         sodipodi:cy="353.33661"
         sodipodi:cx="463.15494"
         id="path9219"
         style="fill:black;fill-opacity:1;fill-rule:nonzero;stroke:none;stroke-width:1.60000002;stroke-linecap:round;stroke-linejoin:miter;stroke-miterlimit:4;stroke-dasharray:none;stroke-dashoffset:0;stroke-opacity:0.90797544"
         sodipodi:type="arc" />
      <path
         transform="matrix(-0.13303,0,0,0.140232,390.8041,241.4612)"
         sodipodi:open="true"
         sodipodi:end="12.422656"
         sodipodi:start="6.1458138"
         d="M 497.67689,349.04837 A 34.850262,31.31473 0 1 1 497.64592,348.8517"
         sodipodi:ry="31.31473"
         sodipodi:rx="34.850262"
         sodipodi:cy="353.33661"
         sodipodi:cx="463.15494"
         id="path9221"
         style="fill:black;fill-opacity:1;fill-rule:nonzero;stroke:none;stroke-width:1.60000002;stroke-linecap:round;stroke-linejoin:miter;stroke-miterlimit:4;stroke-dasharray:none;stroke-dashoffset:0;stroke-opacity:0.90797544"
         sodipodi:type="arc" />
      <path
         transform="matrix(-0.302058,0.229223,-5.62931e-2,-8.216137e-2,479.8031,221.0677)"
         sodipodi:open="true"
         sodipodi:end="12.422656"
         sodipodi:start="6.1458138"
         d="M 497.67689,349.04837 A 34.850262,31.31473 0 1 1 497.64592,348.8517"
         sodipodi:ry="31.31473"
         sodipodi:rx="34.850262"
         sodipodi:cy="353.33661"
         sodipodi:cx="463.15494"
         id="path9223"
         style="fill:black;fill-opacity:1;fill-rule:nonzero;stroke:none;stroke-width:1.60000002;stroke-linecap:round;stroke-linejoin:miter;stroke-miterlimit:4;stroke-dasharray:none;stroke-dashoffset:0;stroke-opacity:0.90797544"
         sodipodi:type="arc" />
      <path
         transform="matrix(-0.13303,0,0,-0.140232,368.6164,358.2746)"
         sodipodi:open="true"
         sodipodi:end="12.422656"
         sodipodi:start="6.1458138"
         d="M 497.67689,349.04837 A 34.850262,31.31473 0 1 1 497.64592,348.8517"
         sodipodi:ry="31.31473"
         sodipodi:rx="34.850262"
         sodipodi:cy="353.33661"
         sodipodi:cx="463.15494"
         id="path9225"
         style="fill:black;fill-opacity:1;fill-rule:nonzero;stroke:none;stroke-width:1.60000002;stroke-linecap:round;stroke-linejoin:miter;stroke-miterlimit:4;stroke-dasharray:none;stroke-dashoffset:0;stroke-opacity:0.90797544"
         sodipodi:type="arc" />
      <path
         transform="matrix(-0.205718,0,0,0.189803,479.1268,263.6406)"
         sodipodi:open="true"
         sodipodi:end="12.422656"
         sodipodi:start="6.1458138"
         d="M 497.67689,349.04837 A 34.850262,31.31473 0 1 1 497.64592,348.8517"
         sodipodi:ry="31.31473"
         sodipodi:rx="34.850262"
         sodipodi:cy="353.33661"
         sodipodi:cx="463.15494"
         id="path9227"
         style="fill:black;fill-opacity:1;fill-rule:nonzero;stroke:none;stroke-width:1.60000002;stroke-linecap:round;stroke-linejoin:miter;stroke-miterlimit:4;stroke-dasharray:none;stroke-dashoffset:0;stroke-opacity:0.90797544"
         sodipodi:type="arc" />
      <path
         transform="matrix(0.530634,0,0,0.24926,121.5067,240.1386)"
         sodipodi:open="true"
         sodipodi:end="12.422656"
         sodipodi:start="6.1458138"
         d="M 497.67689,349.04837 A 34.850262,31.31473 0 1 1 497.64592,348.8517"
         sodipodi:ry="31.31473"
         sodipodi:rx="34.850262"
         sodipodi:cy="353.33661"
         sodipodi:cx="463.15494"
         id="path9229"
         style="fill:black;fill-opacity:1;fill-rule:nonzero;stroke:none;stroke-width:1.60000002;stroke-linecap:round;stroke-linejoin:miter;stroke-miterlimit:4;stroke-dasharray:none;stroke-dashoffset:0;stroke-opacity:0.90797544"
         sodipodi:type="arc" />
      <path
         transform="matrix(-0.195437,0,-0.111282,0.695751,510.801,105.5471)"
         sodipodi:open="true"
         sodipodi:end="12.422656"
         sodipodi:start="6.1458138"
         d="M 497.67689,349.04837 A 34.850262,31.31473 0 1 1 497.64592,348.8517"
         sodipodi:ry="31.31473"
         sodipodi:rx="34.850262"
         sodipodi:cy="353.33661"
         sodipodi:cx="463.15494"
         id="path9231"
         style="fill:black;fill-opacity:1;fill-rule:nonzero;stroke:none;stroke-width:1.60000002;stroke-linecap:round;stroke-linejoin:miter;stroke-miterlimit:4;stroke-dasharray:none;stroke-dashoffset:0;stroke-opacity:0.90797544"
         sodipodi:type="arc" />
      <path
         transform="matrix(-0.205718,0,0,0.189803,472.5634,304.1)"
         sodipodi:open="true"
         sodipodi:end="12.422656"
         sodipodi:start="6.1458138"
         d="M 497.67689,349.04837 A 34.850262,31.31473 0 1 1 497.64592,348.8517"
         sodipodi:ry="31.31473"
         sodipodi:rx="34.850262"
         sodipodi:cy="353.33661"
         sodipodi:cx="463.15494"
         id="path9233"
         style="fill:black;fill-opacity:1;fill-rule:nonzero;stroke:none;stroke-width:1.60000002;stroke-linecap:round;stroke-linejoin:miter;stroke-miterlimit:4;stroke-dasharray:none;stroke-dashoffset:0;stroke-opacity:0.90797544"
         sodipodi:type="arc" />
      <path
         transform="matrix(-0.284035,0.227768,0.126934,0.145614,463.1382,260.2502)"
         sodipodi:open="true"
         sodipodi:end="12.422656"
         sodipodi:start="6.1458138"
         d="M 497.67689,349.04837 A 34.850262,31.31473 0 1 1 497.64592,348.8517"
         sodipodi:ry="31.31473"
         sodipodi:rx="34.850262"
         sodipodi:cy="353.33661"
         sodipodi:cx="463.15494"
         id="path9235"
         style="fill:black;fill-opacity:1;fill-rule:nonzero;stroke:none;stroke-width:1.60000002;stroke-linecap:round;stroke-linejoin:miter;stroke-miterlimit:4;stroke-dasharray:none;stroke-dashoffset:0;stroke-opacity:0.90797544"
         sodipodi:type="arc" />
      <path
         transform="matrix(-0.195437,0,3.104195e-2,0.695751,458.6061,148.3837)"
         sodipodi:open="true"
         sodipodi:end="12.422656"
         sodipodi:start="6.1458138"
         d="M 497.67689,349.04837 A 34.850262,31.31473 0 1 1 497.64592,348.8517"
         sodipodi:ry="31.31473"
         sodipodi:rx="34.850262"
         sodipodi:cy="353.33661"
         sodipodi:cx="463.15494"
         id="path9237"
         style="fill:black;fill-opacity:1;fill-rule:nonzero;stroke:none;stroke-width:1.60000002;stroke-linecap:round;stroke-linejoin:miter;stroke-miterlimit:4;stroke-dasharray:none;stroke-dashoffset:0;stroke-opacity:0.90797544"
         sodipodi:type="arc" />
      <path
         transform="matrix(-0.199221,0,0,0.16451,444.0432,275.2966)"
         sodipodi:open="true"
         sodipodi:end="12.422656"
         sodipodi:start="6.1458138"
         d="M 497.67689,349.04837 A 34.850262,31.31473 0 1 1 497.64592,348.8517"
         sodipodi:ry="31.31473"
         sodipodi:rx="34.850262"
         sodipodi:cy="353.33661"
         sodipodi:cx="463.15494"
         id="path9239"
         style="fill:black;fill-opacity:1;fill-rule:nonzero;stroke:none;stroke-width:1.60000002;stroke-linecap:round;stroke-linejoin:miter;stroke-miterlimit:4;stroke-dasharray:none;stroke-dashoffset:0;stroke-opacity:0.90797544"
         sodipodi:type="arc" />
      <path
         transform="matrix(-0.189264,0,-0.191485,0.603037,500.8018,138.6612)"
         sodipodi:open="true"
         sodipodi:end="12.422656"
         sodipodi:start="6.1458138"
         d="M 497.67689,349.04837 A 34.850262,31.31473 0 1 1 497.64592,348.8517"
         sodipodi:ry="31.31473"
         sodipodi:rx="34.850262"
         sodipodi:cy="353.33661"
         sodipodi:cx="463.15494"
         id="path9241"
         style="fill:black;fill-opacity:1;fill-rule:nonzero;stroke:none;stroke-width:1.60000002;stroke-linecap:round;stroke-linejoin:miter;stroke-miterlimit:4;stroke-dasharray:none;stroke-dashoffset:0;stroke-opacity:0.90797544"
         sodipodi:type="arc" />
      <path
         transform="matrix(-0.199221,0,0,0.16451,430.2584,313.4933)"
         sodipodi:open="true"
         sodipodi:end="12.422656"
         sodipodi:start="6.1458138"
         d="M 497.67689,349.04837 A 34.850262,31.31473 0 1 1 497.64592,348.8517"
         sodipodi:ry="31.31473"
         sodipodi:rx="34.850262"
         sodipodi:cy="353.33661"
         sodipodi:cx="463.15494"
         id="path9243"
         style="fill:black;fill-opacity:1;fill-rule:nonzero;stroke:none;stroke-width:1.60000002;stroke-linecap:round;stroke-linejoin:miter;stroke-miterlimit:4;stroke-dasharray:none;stroke-dashoffset:0;stroke-opacity:0.90797544"
         sodipodi:type="arc" />
      <path
         transform="matrix(-0.275065,0.197416,0.122925,0.12621,428.5596,272.3579)"
         sodipodi:open="true"
         sodipodi:end="12.422656"
         sodipodi:start="6.1458138"
         d="M 497.67689,349.04837 A 34.850262,31.31473 0 1 1 497.64592,348.8517"
         sodipodi:ry="31.31473"
         sodipodi:rx="34.850262"
         sodipodi:cy="353.33661"
         sodipodi:cx="463.15494"
         id="path9245"
         style="fill:black;fill-opacity:1;fill-rule:nonzero;stroke:none;stroke-width:1.60000002;stroke-linecap:round;stroke-linejoin:miter;stroke-miterlimit:4;stroke-dasharray:none;stroke-dashoffset:0;stroke-opacity:0.90797544"
         sodipodi:type="arc" />
      <path
         transform="matrix(-0.189264,0,0.239357,0.603037,346.7232,176.5718)"
         sodipodi:open="true"
         sodipodi:end="12.422656"
         sodipodi:start="6.1458138"
         d="M 497.67689,349.04837 A 34.850262,31.31473 0 1 1 497.64592,348.8517"
         sodipodi:ry="31.31473"
         sodipodi:rx="34.850262"
         sodipodi:cy="353.33661"
         sodipodi:cx="463.15494"
         id="path9247"
         style="fill:black;fill-opacity:1;fill-rule:nonzero;stroke:none;stroke-width:1.60000002;stroke-linecap:round;stroke-linejoin:miter;stroke-miterlimit:4;stroke-dasharray:none;stroke-dashoffset:0;stroke-opacity:0.90797544"
         sodipodi:type="arc" />
    </g>
  </g>
</svg>
