<?xml version="1.0" encoding="UTF-8" standalone="no"?>
<!-- Created with Inkscape (http://www.inkscape.org/) -->
<svg
   xmlns:dc="http://purl.org/dc/elements/1.1/"
   xmlns:cc="http://web.resource.org/cc/"
   xmlns:rdf="http://www.w3.org/1999/02/22-rdf-syntax-ns#"
   xmlns:svg="http://www.w3.org/2000/svg"
   xmlns="http://www.w3.org/2000/svg"
   xmlns:xlink="http://www.w3.org/1999/xlink"
   xmlns:sodipodi="http://sodipodi.sourceforge.net/DTD/sodipodi-0.dtd"
   xmlns:inkscape="http://www.inkscape.org/namespaces/inkscape"
   width="32px"
   height="32px"
   id="svg5151"
   sodipodi:version="0.32"
   inkscape:version="0.45"
   sodipodi:docname="template.svg"
   sodipodi:docbase="/home/noemie/Dessin vectoriel/atomes"
   inkscape:output_extension="org.inkscape.output.svg.inkscape">
  <defs
     id="defs5153">
    <linearGradient
       id="linearGradient51022">
      <stop
         style="stop-color:#18a300;stop-opacity:1;"
         offset="0"
         id="stop51024" />
      <stop
         style="stop-color:#052200;stop-opacity:0;"
         offset="1"
         id="stop51026" />
    </linearGradient>
    <radialGradient
       inkscape:collect="always"
       xlink:href="#linearGradient51022"
       id="radialGradient51028"
       cx="22.896278"
       cy="60.577507"
       fx="22.896278"
       fy="60.577507"
       r="16.252466"
       gradientTransform="matrix(1.867868,1.481332,-1.323117,1.594773,59.35984,-75.02362)"
       gradientUnits="userSpaceOnUse" />
    <linearGradient
       id="linearGradient5110">
      <stop
         style="stop-color:#fff6c8;stop-opacity:1;"
         offset="0"
         id="stop5112" />
      <stop
         style="stop-color:#fff6c8;stop-opacity:0;"
         offset="1"
         id="stop5114" />
    </linearGradient>
    <linearGradient
       inkscape:collect="always"
       xlink:href="#linearGradient5110"
       id="linearGradient14842"
       gradientUnits="userSpaceOnUse"
       x1="24.563169"
       y1="10.240016"
       x2="24.399189"
       y2="14.145143"
       gradientTransform="matrix(0.8911894,0,0,0.8911894,-1.4974607,-9.175934e-2)" />
    <linearGradient
       inkscape:collect="always"
       id="linearGradient15817">
      <stop
         style="stop-color:#fff6c8;stop-opacity:1;"
         offset="0"
         id="stop15819" />
      <stop
         style="stop-color:#fff6c8;stop-opacity:0;"
         offset="1"
         id="stop15821" />
    </linearGradient>
    <radialGradient
       inkscape:collect="always"
       xlink:href="#linearGradient15817"
       id="radialGradient15823"
       cx="20.842585"
       cy="19.249104"
       fx="20.842585"
       fy="19.249104"
       r="11.029864"
       gradientTransform="matrix(1.2320553,-2.7774263e-2,3.0444536e-3,0.1350508,-8.6605892,8.9627411)"
       gradientUnits="userSpaceOnUse" />
    <linearGradient
       inkscape:collect="always"
       id="linearGradient16804">
      <stop
         style="stop-color:#000000;stop-opacity:1;"
         offset="0"
         id="stop16806" />
      <stop
         style="stop-color:#000000;stop-opacity:0;"
         offset="1"
         id="stop16808" />
    </linearGradient>
    <radialGradient
       inkscape:collect="always"
       xlink:href="#linearGradient16804"
       id="radialGradient16810"
       cx="17.393158"
       cy="12.184409"
       fx="17.393158"
       fy="12.184409"
       r="11.008681"
       gradientTransform="matrix(0.8911894,0,0,7.859585e-2,-1.55316,11.332435)"
       gradientUnits="userSpaceOnUse" />
    <linearGradient
       id="linearGradient38451">
      <stop
         style="stop-color:#0d0b00;stop-opacity:1;"
         offset="0"
         id="stop38453" />
      <stop
         style="stop-color:#b5ae07;stop-opacity:0;"
         offset="1"
         id="stop38455" />
    </linearGradient>
    <radialGradient
       inkscape:collect="always"
       xlink:href="#linearGradient38451"
       id="radialGradient51044"
       gradientUnits="userSpaceOnUse"
       gradientTransform="matrix(2.7276584,-3.7884357e-2,6.3442874e-2,2.203525,-164.03855,-80.655241)"
       cx="74.862114"
       cy="70.301659"
       fx="74.862114"
       fy="70.301659"
       r="26.982248" />
    <linearGradient
       inkscape:collect="always"
       id="linearGradient7062">
      <stop
         style="stop-color:#fff6c8;stop-opacity:1;"
         offset="0"
         id="stop7064" />
      <stop
         style="stop-color:#fff6c8;stop-opacity:0;"
         offset="1"
         id="stop7066" />
    </linearGradient>
    <linearGradient
       inkscape:collect="always"
       xlink:href="#linearGradient7062"
       id="linearGradient7068"
       x1="130.85857"
       y1="77.364807"
       x2="81.341789"
       y2="82.472771"
       gradientUnits="userSpaceOnUse" />
    <linearGradient
       id="linearGradient3291">
      <stop
         style="stop-color:#000000;stop-opacity:1"
         offset="0"
         id="stop3293" />
      <stop
         style="stop-color:#000000;stop-opacity:0"
         offset="1"
         id="stop3295" />
    </linearGradient>
    <radialGradient
       cx="63.912209"
       cy="115.70919"
       r="63.912209"
       fx="75.857941"
       fy="115.70919"
       id="radialGradient2595"
       xlink:href="#linearGradient3291"
       gradientUnits="userSpaceOnUse"
       gradientTransform="matrix(1,0,0,0.197802,0,92.82166)" />
  </defs>
  <sodipodi:namedview
     id="base"
     pagecolor="#ffffff"
     bordercolor="#666666"
     borderopacity="1.0"
     inkscape:pageopacity="0.0"
     inkscape:pageshadow="2"
     inkscape:zoom="11.197802"
     inkscape:cx="16"
     inkscape:cy="16"
     inkscape:current-layer="layer1"
     showgrid="false"
     inkscape:grid-bbox="true"
     inkscape:document-units="px"
     inkscape:window-width="910"
     inkscape:window-height="626"
     inkscape:window-x="0"
     inkscape:window-y="49" />
  <metadata
     id="metadata5156">
    <rdf:RDF>
      <cc:Work
         rdf:about="">
        <dc:format>image/svg+xml</dc:format>
        <dc:type
           rdf:resource="http://purl.org/dc/dcmitype/StillImage" />
      </cc:Work>
    </rdf:RDF>
  </metadata>
  <g
     id="layer1"
     inkscape:label="Layer 1"
     inkscape:groupmode="layer">
    <g
       id="g5163"
       transform="matrix(0.8013253,0,0,0.8013253,1.5741608e-3,-5.6826373e-2)">
      <path
         d="M 127.82442,115.70919 C 127.82442,122.69116 99.209949,128.35117 63.91221,128.35117 C 28.614471,128.35117 4.3227263e-15,122.69116 0,115.70919 C -4.3227263e-15,108.72722 28.614471,103.06721 63.91221,103.06721 C 99.209949,103.06721 127.82442,108.72722 127.82442,115.70919 L 127.82442,115.70919 z "
         transform="matrix(0.2772262,0,0,0.1155117,2.70576,24.293381)"
         style="opacity:0.38139535;fill:url(#radialGradient2595);fill-opacity:1;fill-rule:nonzero;stroke:none;stroke-width:0;stroke-linecap:round;stroke-linejoin:round;stroke-miterlimit:4;stroke-dasharray:none;stroke-dashoffset:4;stroke-opacity:1"
         id="path2593" />
      <path
         d="M 10.956528,1.0198748 L 10.956528,-1.7748336 L 10.956528,1.0198748 z "
         style="fill:#ffffff;fill-opacity:0.75688076;fill-rule:nonzero;stroke:none;stroke-width:0.5;stroke-linecap:round;stroke-linejoin:round;stroke-miterlimit:4;stroke-dasharray:none;stroke-dashoffset:4;stroke-opacity:1"
         id="path2276" />
      <rect
         width="40.001965"
         height="10.004759"
         x="-0.0019644466"
         y="30"
         style="opacity:0.61162792;fill:#555753;fill-opacity:1;fill-rule:nonzero;stroke:none;stroke-width:0.69999999;stroke-linecap:round;stroke-linejoin:miter;stroke-miterlimit:4;stroke-dasharray:none;stroke-opacity:1"
         id="rect1951" />
      <text
         x="16.000019"
         y="39.168156"
         style="font-size:12px;font-style:normal;font-weight:normal;fill:#eeeeec;fill-opacity:1;stroke:none;stroke-width:1px;stroke-linecap:butt;stroke-linejoin:miter;stroke-opacity:1;font-family:Bitstream Vera Sans"
         id="text2840"
         xml:space="preserve"><tspan
           x="16.000019"
           y="39.168156"
           id="tspan2842">Zn</tspan></text>
    </g>
    <path
       sodipodi:type="arc"
       style="opacity:1;fill:#052200;fill-opacity:1;fill-rule:evenodd;stroke:none;stroke-width:6.16800022;stroke-linecap:square;stroke-linejoin:round;stroke-miterlimit:4;stroke-dasharray:none;stroke-dashoffset:0;stroke-opacity:1"
       id="path49248"
       sodipodi:cx="34.556213"
       sodipodi:cy="63.846153"
       sodipodi:rx="16.252466"
       sodipodi:ry="15.147929"
       d="M 50.80868 63.846153 A 16.252466 15.147929 0 1 1  18.303747,63.846153 A 16.252466 15.147929 0 1 1  50.80868 63.846153 z"
       transform="matrix(0.147622,0,0,0.1509907,-1.5785443,1.7062502)" />
    <path
       sodipodi:type="arc"
       style="opacity:1;fill:url(#radialGradient51028);fill-opacity:1;fill-rule:evenodd;stroke:none;stroke-width:6.16800022;stroke-linecap:square;stroke-linejoin:round;stroke-miterlimit:4;stroke-dasharray:none;stroke-dashoffset:0;stroke-opacity:1"
       id="path50135"
       sodipodi:cx="34.556213"
       sodipodi:cy="63.846153"
       sodipodi:rx="16.252466"
       sodipodi:ry="15.147929"
       d="M 50.80868 63.846153 A 16.252466 15.147929 0 1 1  18.303747,63.846153 A 16.252466 15.147929 0 1 1  50.80868 63.846153 z"
       transform="matrix(0.147622,0,0,0.1509907,-1.6018368,1.6586)" />
    <path
       style="fill:none;fill-opacity:0.75;fill-rule:evenodd;stroke:#faef00;stroke-width:0.16538022px;stroke-linecap:butt;stroke-linejoin:miter;stroke-opacity:1"
       d="M 25.728321,6.6490358 C 25.775984,11.106729 9.2371371,11.106729 9.2371371,11.106729 L 6.2344069,11.106729"
       id="path33131"
       sodipodi:nodetypes="ccc" />
    <path
       style="fill:none;fill-opacity:0.75;fill-rule:evenodd;stroke:#faef00;stroke-width:0.16440214px;stroke-linecap:butt;stroke-linejoin:miter;stroke-opacity:1"
       d="M 25.681679,15.794692 C 25.681679,11.221594 9.3418305,11.678904 9.3418305,11.678904 L 6.2339633,11.564578"
       id="path33133"
       sodipodi:nodetypes="ccc" />
    <path
       style="fill:none;fill-opacity:1;fill-rule:evenodd;stroke:#faef00;stroke-width:0.16440214px;stroke-linecap:butt;stroke-linejoin:miter;stroke-opacity:1"
       d="M 25.752257,15.794692 C 25.752257,11.221594 9.4124127,11.678904 9.4124127,11.678904 L 6.304545,11.564578"
       id="path38469"
       sodipodi:nodetypes="ccc" />
    <path
       style="fill:none;fill-opacity:0.75;fill-rule:evenodd;stroke:#faef00;stroke-width:0.16538022px;stroke-linecap:butt;stroke-linejoin:miter;stroke-opacity:1"
       d="M 25.528169,6.7633633 C 25.57583,11.221055 9.0369849,11.221055 9.0369849,11.221055 L 6.0342545,11.221055"
       id="path40275"
       sodipodi:nodetypes="ccc" />
    <path
       style="fill:#e3ad00;fill-opacity:1;fill-rule:evenodd;stroke:#ffaa00;stroke-width:0.16440214px;stroke-linecap:butt;stroke-linejoin:miter;stroke-opacity:1"
       d="M 5.9396325,11.107266 C 5.9867215,11.793234 5.9867215,11.793234 5.9867215,11.793234 L 14.698168,11.850397 L 19.595414,12.479198 L 23.174168,13.393817 L 24.35139,14.079781 L 25.198991,14.937237 L 25.434434,15.623201 L 25.481526,6.8771519 L 25.104813,7.9060989 L 24.35139,8.7063904 L 22.891634,9.3923554 L 21.620236,9.7925021 L 19.454148,10.306976 L 16.393371,10.764287 L 13.144234,11.107266 L 5.9396325,11.107266 z "
       id="path40279" />
    <path
       style="fill:none;fill-opacity:1;fill-rule:evenodd;stroke:#ffaa00;stroke-width:0.16538022px;stroke-linecap:butt;stroke-linejoin:miter;stroke-opacity:1"
       d="M 25.798905,6.6490358 C 25.846564,11.106729 9.3077193,11.106729 9.3077193,11.106729 L 6.304989,11.106729"
       id="path38467"
       sodipodi:nodetypes="ccc" />
    <path
       style="fill:url(#linearGradient14842);fill-opacity:1;fill-rule:evenodd;stroke:none;stroke-width:1px;stroke-linecap:butt;stroke-linejoin:miter;stroke-opacity:1"
       d="M 5.9749743,11.078686 C 6.0220631,11.764651 6.0220631,11.764651 6.0220631,11.764651 L 14.73351,11.821813 L 19.630756,12.450616 L 23.20951,13.365233 L 24.386733,14.0512 L 25.234333,14.908656 L 25.469778,15.594619 L 25.516866,6.8485697 L 25.140155,7.8775171 L 24.386733,8.6778086 L 22.926978,9.3637732 L 21.655575,9.7639199 L 19.489488,10.278393 L 16.428711,10.735703 L 13.179575,11.078686 L 5.9749743,11.078686 z "
       id="path33135" />
    <path
       style="fill:none;fill-opacity:1;fill-rule:evenodd;stroke:url(#radialGradient15823);stroke-width:0.13229392px;stroke-linecap:butt;stroke-linejoin:miter;stroke-opacity:1"
       d="M 25.587444,8.4734999 C 25.635185,11.321148 9.0682701,11.321148 9.0682701,11.321148 L 6.0604434,11.321148"
       id="path40281"
       sodipodi:nodetypes="ccc" />
    <path
       style="fill:none;fill-opacity:1;fill-rule:evenodd;stroke:#ffaa00;stroke-width:0.16440214px;stroke-linecap:butt;stroke-linejoin:miter;stroke-opacity:1"
       d="M 25.552103,15.909019 C 25.552103,11.335922 9.2122605,11.793232 9.2122605,11.793232 L 6.1043926,11.678904"
       id="path40283"
       sodipodi:nodetypes="ccc" />
    <path
       style="fill:none;fill-opacity:0.75;fill-rule:evenodd;stroke:url(#radialGradient16810);stroke-width:0.10187367px;stroke-linecap:butt;stroke-linejoin:miter;stroke-opacity:1"
       d="M 25.289991,13.238865 C 25.289991,11.488515 8.8976091,11.663549 8.8976091,11.663549 L 5.7797492,11.619791"
       id="path40277"
       sodipodi:nodetypes="ccc" />
    <path
       sodipodi:type="arc"
       style="opacity:1;fill:#e3ad00;fill-opacity:1;fill-rule:evenodd;stroke:#ffaa00;stroke-width:1.1680907;stroke-linecap:square;stroke-linejoin:miter;stroke-miterlimit:4;stroke-dasharray:none;stroke-dashoffset:0;stroke-opacity:1"
       id="path38461"
       sodipodi:cx="94.20118"
       sodipodi:cy="71.42012"
       sodipodi:rx="26.982248"
       sodipodi:ry="39.132149"
       d="M 121.18343 71.42012 A 26.982248 39.132149 0 1 1  67.218931,71.42012 A 26.982248 39.132149 0 1 1  121.18343 71.42012 z"
       transform="matrix(9.023204e-2,0,0,0.1163189,17.624257,2.9781326)" />
    <path
       sodipodi:type="arc"
       style="opacity:1;fill:url(#radialGradient51044);fill-opacity:1;fill-rule:evenodd;stroke:none;stroke-width:1.1680907;stroke-linecap:square;stroke-linejoin:miter;stroke-miterlimit:4;stroke-dasharray:none;stroke-dashoffset:0;stroke-opacity:1"
       id="path38463"
       sodipodi:cx="94.20118"
       sodipodi:cy="71.42012"
       sodipodi:rx="35.029995"
       sodipodi:ry="39.132149"
       d="M 129.23117 71.42012 A 35.029995 39.132149 0 1 1  59.171185,71.42012 A 35.029995 39.132149 0 1 1  129.23117 71.42012 z"
       transform="matrix(8.2142722e-2,0,0,0.1182751,18.766548,2.6639107)" />
    <path
       transform="matrix(5.5888539e-2,0,0,0.1055536,20.431149,3.8185688)"
       d="M 129.23117 71.42012 A 35.029995 39.132149 0 1 1  59.171185,71.42012 A 35.029995 39.132149 0 1 1  129.23117 71.42012 z"
       sodipodi:ry="39.132149"
       sodipodi:rx="35.029995"
       sodipodi:cy="71.42012"
       sodipodi:cx="94.20118"
       id="path5120"
       style="opacity:1;fill:none;fill-opacity:1;fill-rule:evenodd;stroke:url(#linearGradient7068);stroke-width:2.71243954;stroke-linecap:square;stroke-linejoin:miter;stroke-miterlimit:4;stroke-dasharray:none;stroke-dashoffset:0;stroke-opacity:1"
       sodipodi:type="arc" />
  </g>
</svg>
