{
    "authors":[
        [
            "Cies Breijs",
            "Initiator and core developer",
            "cies@kde.nl",
            null
        ],
        [
            "Niels Slot",
            "Core developer",
            "nielsslot@gmail.com",
            null
        ],
        [
            "Mauricio Piacentini",
            "Core developer",
            "piacentini@kde.org",
            null
        ]
    ],
    "category":"Education",
    "credits":[],
    "generic name":"Educational Programming Environment",
    "license":"GPL"
}